﻿GTK+ issues:
----------------------------------------------------------------------------------------------------
gtk_main_window_exit docs:
"if true the application must expect to be closed even against it's will"
                                                               ^its
----------------------------------------------------------------------------------------------------
https://developer.gnome.org/gtk3/3.4/GtkSpinButton.html#GtkSpinButton-input

Генератор глючит? В коде вроде правильно.
 gpointer       new_value ->  gdouble       *new_value
----------------------------------------------------------------------------------------------------
http://www.gtk.org/api/2.6/glib/glib-Standard-Macros.html#MIN:CAPS
MIN/MAX not stable - fixes NaN-s as used (e.g. MIN(user_provided, my_max))
----------------------------------------------------------------------------------------------------
https://developer.gnome.org/gobject/stable/gobject-Closures.html
reponsibility  -> responsibility 
----------------------------------------------------------------------------------------------------
https://developer.gnome.org/gtk3/stable/GtkWidget.html
gtk_widget_set_mapped
Marks the widget as being (realized -> mapped).
----------------------------------------------------------------------------------------------------
